607198,
607345,
607480,
607817,
608749,
609145,
609766,
610272,
610377,
610406,
610927,
611084,
611085,
611274,
611391,
611403,
611427,
611452,
611487,
611488,
611611,
611778,
611794,
611896,
611949,
612004,
612116,
612135,
612289,
612367,
612427,
612442,
612538,
612571,
612674,
612796,
612799,
612875,
612964,
613001,
613011,
613013,
613029,
613031,
613107,
613149,
613158,
613235,
613236,
613237,
613240,
613249,
613260,
613291,
613321,
613422,
613480,
613556,
613626,
613736,
613991,
613998,
614085,
614128,
614156,
614168,
614169,
614170,
614193,
614203,
614207,
614214,
614215,
614466,
614503,
614511,
614517,
614542,
614546,
614654,
614988,
615221,
615245,
615309,
615407,
615563,
615575,
615576,
615617,
615621,
615625,
615639,
615650,
615662,
615880,
616232,
616390,
616641,
616658,
616752,
616757,
616767,
616813,